{
    "prepare_queue": {
        "installed": [],
        "uninstalled": []
    },
    "config_munge": {
        "files": {}
    },
    "installed_plugins": {
        "cordova-plugin-device": {
            "PACKAGE_NAME": "MyApp"
        },
        "cordova-plugin-ionic-webview": {
            "PACKAGE_NAME": "MyApp"
        },
        "cordova-plugin-splashscreen": {
            "PACKAGE_NAME": "MyApp"
        },
        "cordova-plugin-whitelist": {
            "PACKAGE_NAME": "MyApp"
        },
        "ionic-plugin-keyboard": {
            "PACKAGE_NAME": "MyApp"
        }
    },
    "dependent_plugins": {},
    "modules": [
        {
            "id": "cordova-plugin-device.device",
            "file": "plugins/cordova-plugin-device/www/device.js",
            "pluginId": "cordova-plugin-device",
            "clobbers": [
                "device"
            ]
        },
        {
            "id": "cordova-plugin-device.DeviceProxy",
            "file": "plugins/cordova-plugin-device/src/windows/DeviceProxy.js",
            "pluginId": "cordova-plugin-device",
            "merges": [
                ""
            ]
        },
        {
            "id": "cordova-plugin-splashscreen.SplashScreen",
            "file": "plugins/cordova-plugin-splashscreen/www/splashscreen.js",
            "pluginId": "cordova-plugin-splashscreen",
            "clobbers": [
                "navigator.splashscreen"
            ]
        },
        {
            "id": "cordova-plugin-splashscreen.SplashScreenProxy",
            "file": "plugins/cordova-plugin-splashscreen/www/windows/SplashScreenProxy.js",
            "pluginId": "cordova-plugin-splashscreen",
            "runs": true
        },
        {
            "id": "ionic-plugin-keyboard.KeyboardProxy",
            "file": "plugins/ionic-plugin-keyboard/src/windows/KeyboardProxy.js",
            "pluginId": "ionic-plugin-keyboard",
            "clobbers": [
                "cordova.plugins.Keyboard"
            ],
            "runs": true
        }
    ],
    "plugin_metadata": {
        "cordova-plugin-device": "1.1.4",
        "cordova-plugin-ionic-webview": "1.1.11",
        "cordova-plugin-splashscreen": "4.0.3",
        "cordova-plugin-whitelist": "1.3.1",
        "ionic-plugin-keyboard": "2.2.1"
    }
}